{
  "relationships": [
    {
      "relationshipId": 1,
      "relationshipName": "internacoesDetalhes",
      "otherEntityName": "internacoesDetalhes",
      "relationshipType": "one-to-many",
      "otherEntityRelationshipName": "dietas"
    }
  ],
  "fields": [
    {
      "fieldId": 1,
      "fieldName": "dieta",
      "fieldType": "String",
      "fieldValidateRules": [
        "required",
        "maxlength"
      ],
      "fieldValidateRulesMaxlength": 40
    },
    {
      "fieldId": 2,
      "fieldName": "descricao",
      "fieldType": "String",
      "fieldValidateRules": [
        "maxlength"
      ],
      "fieldValidateRulesMaxlength": 255
    }
  ],
  "changelogDate": "20160610015653",
  "dto": "no",
  "pagination": "infinite-scroll",
  "service": "no"
}