{
  "relationships": [
    {
      "relationshipId": 1,
      "relationshipName": "medicos",
      "otherEntityName": "medicos",
      "relationshipType": "one-to-many",
      "otherEntityRelationshipName": "especialidades"
    }
  ],
  "fields": [
    {
      "fieldId": 1,
      "fieldName": "especialidade",
      "fieldType": "String",
      "fieldValidateRules": [
        "required",
        "maxlength"
      ],
      "fieldValidateRulesMaxlength": 60
    }
  ],
  "changelogDate": "20160610015655",
  "dto": "no",
  "pagination": "infinite-scroll",
  "service": "no"
}